Chapter 7 Preparing Data for Analysis | Reproducible Research with R and RStudio (Third Edition)
…
Another important function for quickly summarizing a data frame is table(). This creates a contingency table with counts of the number of observations per combination of factor variables.

You can view a portion of a data frame object with View() This will open a new window that lets you see a selection of the data frame. If you are using RStudio, you can click on the data frame in the Environment tab and you will get something similar. Note that neither of these viewers are interactive in that you can’t use them to manipulate the data. They are only data viewers. To be able to see similar windows that you can interactively edit, use the fix() function in the same way that you use View(). This can be useful for small edits, but remember that the edits are not reproducible.

Tibbles

Most of these data summary capabilities come “for free” when you use an alternate type of data frame called a “tibble” (Müller and Wickham 2023) For example: 

# Create example tibble data frame
tbl_ex <- tibble::tibble(numbers = 1:26, letters = letters)

tbl_ex

## # A tibble: 26 × 2
##    numbers letters
##      <int> <chr>  
##  1       1 a      
##  2       2 b      
##  3       3 c      
##  4       4 d      
##  5       5 e      
##  6       6 f      
##  7       7 g      
##  8       8 h      
##  9       9 i      
## 10      10 j      
## # ℹ 16 more rows
…
7.1.2 Reshaping data

It is often a good idea if your data sets are kept in data frame type objects if that is the format you will use for analysis. See Chapter 3 for how to convert objects into data frames with the data.frame() function. Not only do data sets (generally) need to be stored in data frame objects, they also need to have the same layout before they can be merged. Most R statistical analysis tools assume that your data is in “long” format. For an excellent discussion of ideal data formats for statistical analysis, see Wickham (2014b). Long formatted data usually has columns that represent variables. Rows contain specific observations. For example:

In this chapter we will mostly use examples of time-series cross-sectional data (TSCS) that we want to have in long-format. Long-formatted TSCS data is a data frame where rows identify observations of a particular subject at particular points in time and there are multiple observations per subject (see Table ??). In this chapter our TSCS data is specifically going to be countries that are observed in multiple years.

If one of our raw data sets is not in this format, then we will need to reshape or, using Wickham’s (2014b) terminology, “tidy” it. Some data sets are in “wide” format, where one of the columns in what would be long formatted data is “widened” to cover multiple columns. This is confusing to imagine without an example. Table ?? shows how Table ?? looks when we widen the time variable.

The process of tidying data often causes confusion and frustration. Though probably never easy, there are a number of useful R functions for changing data from wide-format to long and vice versa. These include the matrix transpose function (t())140 and the reshape() function, both are loaded in R by default. tidyr (Wickham, Vaughan, and Girlich 2023) is a very helpful package for reshaping data. This package has more general tools for reshaping data and is worth investing some time to learn well. In this section, we will look at tidyr’s pivot_longer() function and use it to reshape a TSCS data frame from wide- to long-format. We will also encounter this function again in Chapter 10 when we want to transform data so that it can be graphed. Note that if you want to go from long to wide-format, use tidyr’s pivot_wider() function.

For illustration, let’s imagine that the fertilizer consumption data we previously downloaded from the World Bank is in wide, rather than long, format and is in a data frame object called fert_wide. It looks like this:

fert_wide[, 1:4]

## # A tibble: 266 × 4
##    country                     iso2c iso3c `2016`
##    <chr>                       <chr> <chr>  <dbl>
##  1 Afghanistan                 AF    AFG    13.7 
##  2 Africa Eastern and Southern ZH    AFE    21.1 
##  3 Africa Western and Central  ZI    AFW    11.7 
##  4 Albania                     AL    ALB   126.  
##  5 Algeria                     DZ    DZA    21.0 
##  6 American Samoa              AS    ASM    34.2 
##  7 Andorra                     AD    AND    NA   
##  8 Angola                      AO    AGO     6.64
##  9 Antigua and Barbuda         AG    ATG    18.2 
## 10 Arab World                  1A    ARB    51.7 
## # ℹ 256 more rows

See the chapter’s Appendix for the full code I used to reshape the data from long- to wide-format.

Let’s think about how we want to tidy the data. We want to create two new columns from the many columns that are now labeled by year. Let’s call the new columns Year and Fert. The Year column will clearly contain the year of each observation and Fert will contain the fertilizer consumption. Year will be what pivot_longer() calls the variable’s “name” and Fert is the “value”. In our fert_wide data, we don’t want the iso2c and country variables to be gathered. These variables identify the data set’s subjects. So we can tell pivot_longer() that we only want the columns with the between 2016 and 2010 to be used for the long variable. Note that the back ticks in the code below allow us to specify numeric values as column names.

# Gather fert_wide
fert_long <- tidyr::pivot_longer(fert_wide,
                                 cols = `2016`:`2010`,
                                 names_to = "Year",
                                 values_to = "Fert")

fert_long

## # A tibble: 1,862 × 5
##    country                     iso2c iso3c Year   Fert
##    <chr>                       <chr> <chr> <chr> <dbl>
##  1 Afghanistan                 AF    AFG   2016  13.7 
##  2 Afghanistan                 AF    AFG   2015  13.3 
##  3 Afghanistan                 AF    AFG   2014  10.2 
##  4 Afghanistan                 AF    AFG   2013   4.88
##  5 Afghanistan                 AF    AFG   2012   2.38
##  6 Afghanistan                 AF    AFG   2011   3.83
##  7 Afghanistan                 AF    AFG   2010   1.78
##  8 Africa Eastern and Southern ZH    AFE   2016  21.1 
##  9 Africa Eastern and Southern ZH    AFE   2015  19.2 
## 10 Africa Eastern and Southern ZH    AFE   2014  19.9 
## # ℹ 1,852 more rows

7.1.3 Renaming variables

Frequently, in the data cleaning process we want to change the names of our variables. This will make our data easier to understand and may even be necessary to properly combine data sets (see below). In the previous example, for instance, our fert_long data frame has two variables: Year and Fert. Imagine, for the sake of demonstration, that we want to rename them year and fert_cons. Renaming data frame variables is straightforward with the rename() function in the dplyr package . To rename both variable and value with the rename() function type:

fert_long <- dplyr::rename(fert_long,
                           year = Year,
                           fert_cons = Fert)

fert_long

## # A tibble: 1,862 × 5
##    country                  iso2c iso3c year  fert_cons
##    <chr>                    <chr> <chr> <chr>     <dbl>
##  1 Afghanistan              AF    AFG   2016      13.7 
##  2 Afghanistan              AF    AFG   2015      13.3 
##  3 Afghanistan              AF    AFG   2014      10.2 
##  4 Afghanistan              AF    AFG   2013       4.88
##  5 Afghanistan              AF    AFG   2012       2.38
##  6 Afghanistan              AF    AFG   2011       3.83
##  7 Afghanistan              AF    AFG   2010       1.78
##  8 Africa Eastern and Sout… ZH    AFE   2016      21.1 
##  9 Africa Eastern and Sout… ZH    AFE   2015      19.2 
## 10 Africa Eastern and Sout… ZH    AFE   2014      19.9 
## # ℹ 1,852 more rows
…
We can use the subset() function to examine these outliers, for example, countries that have fertilizer consumption greater than 1000 kilograms per hectare.

# Create outlier data frame
fert_outliers <- subset(x = fert_long,
                        fert_cons > 1000)

fert_outliers

## # A tibble: 27 × 5
##    country iso2c iso3c year  fert_cons
##    <chr>   <chr> <chr> <chr>     <dbl>
##  1 Bahrain BH    BHR   2010      1336.
##  2 Bahrain BH    BHR   2012      1567.
##  3 Bahrain BH    BHR   2013      1327.
##  4 Bahrain BH    BHR   2014      1383.
##  5 Bahrain BH    BHR   2015      1040.
##  6 Ireland IE    IRL   2010      1065.
##  7 Ireland IE    IRL   2012      1139.
##  8 Ireland IE    IRL   2013      1110.
##  9 Ireland IE    IRL   2014      1131.
## 10 Ireland IE    IRL   2015      1166.
## # ℹ 17 more rows
…
