Chapter 10 Showing Results with Figures | Reproducible Research with R and RStudio (Third Edition)
…
We can use the pivot_longer function from tidyr that we first saw in
Chapter 7 to reshape the data. The variable identifying the observations in this case is Quarter. The
ActualInflation and EstimatedInflation variables (in columns two
and three) are the variables that we want to pivot. So let’s pivot the
data:

library(tidyr)

# Pivot inflation_data
inflation_long <- pivot_longer(inflation_data, cols = 2:3,
                               names_to = "variable")

inflation_long

## # A tibble: 304 × 3
##    Quarter variable           value
##      <dbl> <chr>              <dbl>
##  1   1969. ActualInflation    NA   
##  2   1969. EstimatedInflation  4.55
##  3   1969. ActualInflation     3.5 
##  4   1969. EstimatedInflation  4.80
##  5   1969. ActualInflation     3.5 
##  6   1969. EstimatedInflation  5.28
##  7   1969. ActualInflation     3.3 
##  8   1969. EstimatedInflation  5.15
##  9   1970. ActualInflation     3.7 
## 10   1970. EstimatedInflation  5.54
## # ℹ 294 more rows
…
